{ "__pg_assets": [
{ "__pg_assets": "models/SampleTorus.json" },
{ "__pg_assets": "fonts/SampleFontset.json" },
{ "__pg_assets": "textures/SampleSpritesheet.json" },
{ "__pg_assets": "gui/SampleGui.json" },

#pg_comment Intermediate buffer
{ "__pg_asset_type": "pg_gpu_framebuffer", "__pg_asset_name": "GameRenderOutput",
    "attachments": [
        {
            "texture": {
                "__pg_asset_name": "GameRenderColorTexture",
                "empty": { "dimensions": "cfg_GameRenderResolution", "format": "RGB8" }
            },
            "attachment_location": "color0"
        },
        {
            "texture": {
                "empty": { "dimensions": "cfg_GameRenderResolution", "format": "DEPTH32F_STENCIL8" }
            },
            "attachment_location": "depth_stencil"
        }
    ]
},

{ "__pg_asset_type": "pg_gpu_resource_set", "__pg_asset_name": "GameRenderResult",
    "textures": [ { "texture": "GameRenderColorTexture" } ],
    "uniform_buffers": []
},

{ "__pg_asset_type": "pg_gpu_render_stage", "__pg_asset_name": "CopyGameRenderToScreen",
    "pipeline": "__pg_single_quad_pipeline",
    "resource_set": "GameRenderResult",
    "vertex_buffer": "__pg_empty_vertex_assembly",
    "output": "__pg_render_output",
    "commands": [
        { "cmd": "set_uniform", "location": 0, "type": "mat4",
            "data": [ { "scaling": [ 2, 2, 2 ] } ] },
        { "cmd": "draw_triangles", "range": [ 0, 6 ] }
    ]
},



#pg_comment Textures
{ "__pg_asset_type": "pg_gpu_texture", "__pg_asset_name": "SampleTexture",
    "contents": [ "textures/sample_texture_0.png", "textures/sample_texture_1.png" ]
},

{ "__pg_asset_type": "pg_gpu_resource_set", "__pg_asset_name": "SampleResourceSet",
    "textures": [ { "texture": "SampleTexture" } ],
    "uniform_buffers": []
},

#pg_comment Vertex buffer
{ "__pg_asset_type": "pg_gpu_vertex_assembly", "__pg_asset_name": "SampleVertexBuffer",
    "bindings": [
        { "buffer": "SampleTorus_vertices" }
    ],
    "attributes": [
        { "attribute": "v_position", "binding": 0 },
        { "attribute": "v_normal", "binding": 0 }
    ],
    "index_buffer": "SampleTorus_indices"
},


#pg_comment Shader
{ "__pg_asset_type": "pg_gpu_shader_program", "__pg_asset_name": "SampleShader",
    "stages": {
        "vertex_shader": "shaders/vertex_shader.glsl",
        "fragment_shader": "shaders/fragment_shader.glsl"
    },
    "interface": {
        "dynamic_uniforms": {
            "MvpMatrix": { "location": 0, "type": "mat4" },
            "Color": { "location": 1, "type": "vec3" }
        },
        "uniform_inputs": {
            "Texture": {
                "location": 1, "binding": 0,
                "type": "texture"
            }
        },
        "vertex_inputs": {
            "position": { "type": "vec3", "location": 0 },
            "normal": { "type": "vec3", "location": 1 }
        },
        "outputs": {
            "color": { "type": "vec3", "location": "color0" }
        }
    }
},

{ "__pg_asset_type": "pg_gpu_pipeline", "__pg_asset_name": "SamplePipeline",
    "shader": "SampleShader"
},

{ "__pg_asset_type": "pg_quadbatch", "__pg_asset_name": "SampleQuadbatch",
    "capacity": 1024,
    "image_texture": "SampleSpritesheet.texture",
    "font_texture": "SampleFontset.texture",
    "output": "GameRenderOutput"
},


#pg_comment Renderer
{ "__pg_asset_type": "pg_gpu_render_stage", "__pg_asset_name": "SampleRenderStage",
    "pipeline": "SamplePipeline",
    "resource_set": "SampleResourceSet",
    "vertex_buffer": "SampleVertexBuffer",
    "output": "GameRenderOutput",
    "commands": [
        { "cmd": "set_uniform", "location": 0, "type": "mat4",
            "data": [
                {   "mat4_mul_chain":
                    [
                        { "translation": [ -0.5, -0.5, 0.5 ] },
                        { "scaling": [ 0.25, 0.25, 0.25 ] },
                        { "euler": [ 1, 1, 1 ] }
                    ]
                }
            ]
        },
        { "cmd": "draw_triangles", "range": "SampleTorus_indices.range[all]", "indexed": true }
    ]
},

{ "__pg_asset_type": "pg_gpu_renderer", "__pg_asset_name": "SampleRenderer",
    "output": "__pg_render_output",
    "stages": [ "SampleRenderStage", "SampleQuadbatch.render_stage", "SampleUiContext.render_stage", "CopyGameRenderToScreen"  ]
}



]}
