{ "__pg_assets": [

{ "__pg_asset_type": "pg_imageset", "__pg_asset_name": "SampleSpritesheet",
    "images": [
        { 
            "name": "Environment",
            "path": "textures/spritesheet.png",
            "grid_cells": [ 8, 8 ],
            "frames": [
                { "name": "YellowTile",     "grid": [[0,0],[1,1]] },
                { "name": "WhiteTile",      "grid": [[1,0],[2,1]] },
                { "name": "RedTile",        "grid": [[0,1],[1,2]] },
                { "name": "BlackTile",      "grid": [[1,1],[2,2]] }
            ],
            "sequences": [
            ]
        }
    ]
}

]}
