{ "__pg_assets": [
{ "__pg_assets": "fonts/GameFonts.json" },
{ "__pg_assets": "textures/GameTextures.json" },
{ "__pg_assets": "renderer/GameRenderer.json" },
{ "__pg_assets": "ui/GameUI.json" }


]}
