{
  "__pg_assets": [
    {
      "__pg_asset_type": "pg_gpu_buffer", 
      "__pg_asset_name": "SampleTorus_vertices", 
      "layout": {
        "attribute_packing": "4byte", 
        "element_alignment": 4, 
        "attributes": [
          {
            "name": "v_position", 
            "type": "vec3"
          }, 
          {
            "name": "v_normal", 
            "type": "vec3"
          }
        ]
      }, 
      "type": "vertex_buffer", 
      "capacity": 96, 
      "data": [
        [
          [
            1.25, 
            0.0, 
            0.0
          ], 
          [
            0.999969482421875, 
            0.0, 
            0.0
          ]
        ], 
        [
          [
            1.0191184282302856, 
            0.5883884429931641, 
            0.1767766922712326
          ], 
          [
            0.6375316381454468, 
            0.36808374524116516, 
            0.6767784357070923
          ]
        ], 
        [
          [
            1.176776647567749, 
            0.0, 
            0.1767766922712326
          ], 
          [
            0.7361674904823303, 
            0.0, 
            0.6767784357070923
          ]
        ], 
        [
          [
            0.8660253286361694, 
            0.5000001192092896, 
            0.25
          ], 
          [
            0.055024873465299606, 
            0.0317697674036026, 
            0.9979552626609802
          ]
        ], 
        [
          [
            1.0, 
            0.0, 
            0.25
          ], 
          [
            0.0635395348072052, 
            0.0, 
            0.9979552626609802
          ]
        ], 
        [
          [
            0.7129322290420532, 
            0.41161173582077026, 
            0.1767766922712326
          ], 
          [
            -0.5822931528091431, 
            -0.33619189262390137, 
            0.7401654124259949
          ]
        ], 
        [
          [
            0.8232232928276062, 
            0.0, 
            0.1767766922712326
          ], 
          [
            -0.6723837852478027, 
            0.0, 
            0.7401654124259949
          ]
        ], 
        [
          [
            0.6495189666748047, 
            0.37500008940696716, 
            3.0616171314629196e-17
          ], 
          [
            -0.8660237193107605, 
            -0.4999847412109375, 
            0.0
          ]
        ], 
        [
          [
            0.75, 
            0.0, 
            3.0616171314629196e-17
          ], 
          [
            -1.0, 
            0.0, 
            0.0
          ]
        ], 
        [
          [
            0.7129322290420532, 
            0.41161173582077026, 
            -0.1767766922712326
          ], 
          [
            -0.5822931528091431, 
            -0.33619189262390137, 
            -0.7401654124259949
          ]
        ], 
        [
          [
            0.8232232928276062, 
            0.0, 
            -0.1767766922712326
          ], 
          [
            -0.6723837852478027, 
            0.0, 
            -0.7401654124259949
          ]
        ], 
        [
          [
            0.8660253286361694, 
            0.5000001192092896, 
            -0.25
          ], 
          [
            0.055024873465299606, 
            0.0317697674036026, 
            -0.9979552626609802
          ]
        ], 
        [
          [
            1.0, 
            0.0, 
            -0.25
          ], 
          [
            0.0635395348072052, 
            0.0, 
            -0.9979552626609802
          ]
        ], 
        [
          [
            1.0191184282302856, 
            0.5883884429931641, 
            -0.1767766922712326
          ], 
          [
            0.6375316381454468, 
            0.36808374524116516, 
            -0.6767784357070923
          ]
        ], 
        [
          [
            1.176776647567749, 
            0.0, 
            -0.1767766922712326
          ], 
          [
            0.7361674904823303, 
            0.0, 
            -0.6767784357070923
          ]
        ], 
        [
          [
            1.0825316905975342, 
            0.6250001192092896, 
            0.0
          ], 
          [
            0.8660237193107605, 
            0.4999847412109375, 
            0.0
          ]
        ], 
        [
          [
            0.5883882641792297, 
            1.0191185474395752, 
            0.1767766922712326
          ], 
          [
            0.36808374524116516, 
            0.6375316381454468, 
            0.6767784357070923
          ]
        ], 
        [
          [
            0.4999999701976776, 
            0.866025447845459, 
            0.25
          ], 
          [
            0.0317697674036026, 
            0.055024873465299606, 
            0.9979552626609802
          ]
        ], 
        [
          [
            0.4116116166114807, 
            0.7129323482513428, 
            0.1767766922712326
          ], 
          [
            -0.33619189262390137, 
            -0.5822931528091431, 
            0.7401654124259949
          ]
        ], 
        [
          [
            0.3749999701976776, 
            0.6495190858840942, 
            3.0616171314629196e-17
          ], 
          [
            -0.4999847412109375, 
            -0.8660237193107605, 
            0.0
          ]
        ], 
        [
          [
            0.4116116166114807, 
            0.7129323482513428, 
            -0.1767766922712326
          ], 
          [
            -0.33619189262390137, 
            -0.5822931528091431, 
            -0.7401654124259949
          ]
        ], 
        [
          [
            0.4999999701976776, 
            0.866025447845459, 
            -0.25
          ], 
          [
            0.0317697674036026, 
            0.055024873465299606, 
            -0.9979552626609802
          ]
        ], 
        [
          [
            0.5883882641792297, 
            1.0191185474395752, 
            -0.1767766922712326
          ], 
          [
            0.36808374524116516, 
            0.6375316381454468, 
            -0.6767784357070923
          ]
        ], 
        [
          [
            0.6249999403953552, 
            1.0825318098068237, 
            0.0
          ], 
          [
            0.4999847412109375, 
            0.8660237193107605, 
            0.0
          ]
        ], 
        [
          [
            8.884416757837243e-08, 
            1.176776647567749, 
            0.1767766922712326
          ], 
          [
            0.0, 
            0.7361674904823303, 
            0.6767784357070923
          ]
        ], 
        [
          [
            7.549790126404332e-08, 
            1.0, 
            0.25
          ], 
          [
            0.0, 
            0.0635395348072052, 
            0.9979552626609802
          ]
        ], 
        [
          [
            6.215162784428685e-08, 
            0.8232232928276062, 
            0.1767766922712326
          ], 
          [
            0.0, 
            -0.6723837852478027, 
            0.7401654124259949
          ]
        ], 
        [
          [
            5.662342772438933e-08, 
            0.75, 
            3.0616171314629196e-17
          ], 
          [
            0.0, 
            -0.999969482421875, 
            0.0
          ]
        ], 
        [
          [
            6.215162784428685e-08, 
            0.8232232928276062, 
            -0.1767766922712326
          ], 
          [
            0.0, 
            -0.6723837852478027, 
            -0.7401654124259949
          ]
        ], 
        [
          [
            7.549790126404332e-08, 
            1.0, 
            -0.25
          ], 
          [
            0.0, 
            0.0635395348072052, 
            -0.9979552626609802
          ]
        ], 
        [
          [
            8.884416757837243e-08, 
            1.176776647567749, 
            -0.1767766922712326
          ], 
          [
            0.0, 
            0.7361674904823303, 
            -0.6767784357070923
          ]
        ], 
        [
          [
            9.437237480369731e-08, 
            1.25, 
            0.0
          ], 
          [
            0.0, 
            1.0, 
            0.0
          ]
        ], 
        [
          [
            -0.5883881449699402, 
            1.0191185474395752, 
            0.1767766922712326
          ], 
          [
            -0.36808374524116516, 
            0.6375316381454468, 
            0.6767784357070923
          ]
        ], 
        [
          [
            -0.49999985098838806, 
            0.8660255074501038, 
            0.25
          ], 
          [
            -0.0317697674036026, 
            0.055024873465299606, 
            0.9979552626609802
          ]
        ], 
        [
          [
            -0.41161152720451355, 
            0.7129323482513428, 
            0.1767766922712326
          ], 
          [
            0.33619189262390137, 
            -0.5822931528091431, 
            0.7401654124259949
          ]
        ], 
        [
          [
            -0.37499988079071045, 
            0.649519145488739, 
            3.0616171314629196e-17
          ], 
          [
            0.4999847412109375, 
            -0.8660237193107605, 
            0.0
          ]
        ], 
        [
          [
            -0.41161152720451355, 
            0.7129323482513428, 
            -0.1767766922712326
          ], 
          [
            0.33619189262390137, 
            -0.5822931528091431, 
            -0.7401654124259949
          ]
        ], 
        [
          [
            -0.49999985098838806, 
            0.8660255074501038, 
            -0.25
          ], 
          [
            -0.0317697674036026, 
            0.055024873465299606, 
            -0.9979552626609802
          ]
        ], 
        [
          [
            -0.5883881449699402, 
            1.0191185474395752, 
            -0.1767766922712326
          ], 
          [
            -0.36808374524116516, 
            0.6375316381454468, 
            -0.6767784357070923
          ]
        ], 
        [
          [
            -0.6249998211860657, 
            1.0825319290161133, 
            0.0
          ], 
          [
            -0.4999847412109375, 
            0.8660237193107605, 
            0.0
          ]
        ], 
        [
          [
            -1.019118309020996, 
            0.5883886218070984, 
            0.1767766922712326
          ], 
          [
            -0.6375316381454468, 
            0.36808374524116516, 
            0.6767784357070923
          ]
        ], 
        [
          [
            -0.8660252690315247, 
            0.5000002384185791, 
            0.25
          ], 
          [
            -0.055024873465299606, 
            0.0317697674036026, 
            0.9979552626609802
          ]
        ], 
        [
          [
            -0.7129321694374084, 
            0.4116118550300598, 
            0.1767766922712326
          ], 
          [
            0.5822931528091431, 
            -0.33619189262390137, 
            0.7401654124259949
          ]
        ], 
        [
          [
            -0.6495189666748047, 
            0.3750001788139343, 
            3.0616171314629196e-17
          ], 
          [
            0.8660237193107605, 
            -0.4999847412109375, 
            0.0
          ]
        ], 
        [
          [
            -0.7129321694374084, 
            0.4116118550300598, 
            -0.1767766922712326
          ], 
          [
            0.5822931528091431, 
            -0.33619189262390137, 
            -0.7401654124259949
          ]
        ], 
        [
          [
            -0.8660252690315247, 
            0.5000002384185791, 
            -0.25
          ], 
          [
            -0.055024873465299606, 
            0.0317697674036026, 
            -0.9979552626609802
          ]
        ], 
        [
          [
            -1.019118309020996, 
            0.5883886218070984, 
            -0.1767766922712326
          ], 
          [
            -0.6375316381454468, 
            0.36808374524116516, 
            -0.6767784357070923
          ]
        ], 
        [
          [
            -1.0825315713882446, 
            0.6250002980232239, 
            0.0
          ], 
          [
            -0.8660237193107605, 
            0.4999847412109375, 
            0.0
          ]
        ], 
        [
          [
            -1.176776647567749, 
            1.0287708107625804e-07, 
            0.1767766922712326
          ], 
          [
            -0.7361674904823303, 
            0.0, 
            0.6767784357070923
          ]
        ], 
        [
          [
            -1.0, 
            8.742277657347586e-08, 
            0.25
          ], 
          [
            -0.0635395348072052, 
            0.0, 
            0.9979552626609802
          ]
        ], 
        [
          [
            -0.8232232928276062, 
            7.196846496526632e-08, 
            0.1767766922712326
          ], 
          [
            0.6723837852478027, 
            0.0, 
            0.7401654124259949
          ]
        ], 
        [
          [
            -0.75, 
            6.556707887739321e-08, 
            3.0616171314629196e-17
          ], 
          [
            0.999969482421875, 
            0.0, 
            0.0
          ]
        ], 
        [
          [
            -0.8232232928276062, 
            7.196846496526632e-08, 
            -0.1767766922712326
          ], 
          [
            0.6723837852478027, 
            0.0, 
            -0.7401654124259949
          ]
        ], 
        [
          [
            -1.0, 
            8.742277657347586e-08, 
            -0.25
          ], 
          [
            -0.0635395348072052, 
            0.0, 
            -0.9979552626609802
          ]
        ], 
        [
          [
            -1.176776647567749, 
            1.0287708107625804e-07, 
            -0.1767766922712326
          ], 
          [
            -0.7361674904823303, 
            0.0, 
            -0.6767784357070923
          ]
        ], 
        [
          [
            -1.25, 
            1.092784742695585e-07, 
            0.0
          ], 
          [
            -0.999969482421875, 
            0.0, 
            0.0
          ]
        ], 
        [
          [
            -1.0191185474395752, 
            -0.5883880853652954, 
            0.1767766922712326
          ], 
          [
            -0.6375316381454468, 
            -0.36808374524116516, 
            0.6767784357070923
          ]
        ], 
        [
          [
            -0.8660255074501038, 
            -0.4999998211860657, 
            0.25
          ], 
          [
            -0.055024873465299606, 
            -0.0317697674036026, 
            0.9979552626609802
          ]
        ], 
        [
          [
            -0.7129323482513428, 
            -0.41161149740219116, 
            0.1767766922712326
          ], 
          [
            0.5822931528091431, 
            0.33619189262390137, 
            0.7401654124259949
          ]
        ], 
        [
          [
            -0.649519145488739, 
            -0.37499988079071045, 
            3.0616171314629196e-17
          ], 
          [
            0.8660237193107605, 
            0.4999847412109375, 
            0.0
          ]
        ], 
        [
          [
            -0.7129323482513428, 
            -0.41161149740219116, 
            -0.1767766922712326
          ], 
          [
            0.5822931528091431, 
            0.33619189262390137, 
            -0.7401654124259949
          ]
        ], 
        [
          [
            -0.8660255074501038, 
            -0.4999998211860657, 
            -0.25
          ], 
          [
            -0.055024873465299606, 
            -0.0317697674036026, 
            -0.9979552626609802
          ]
        ], 
        [
          [
            -1.0191185474395752, 
            -0.5883880853652954, 
            -0.1767766922712326
          ], 
          [
            -0.6375316381454468, 
            -0.36808374524116516, 
            -0.6767784357070923
          ]
        ], 
        [
          [
            -1.0825319290161133, 
            -0.6249997615814209, 
            0.0
          ], 
          [
            -0.8660237193107605, 
            -0.4999847412109375, 
            0.0
          ]
        ], 
        [
          [
            -0.5883881449699402, 
            -1.0191185474395752, 
            0.1767766922712326
          ], 
          [
            -0.36808374524116516, 
            -0.6375316381454468, 
            0.6767784357070923
          ]
        ], 
        [
          [
            -0.49999985098838806, 
            -0.8660255074501038, 
            0.25
          ], 
          [
            -0.0317697674036026, 
            -0.055024873465299606, 
            0.9979552626609802
          ]
        ], 
        [
          [
            -0.41161152720451355, 
            -0.7129323482513428, 
            0.1767766922712326
          ], 
          [
            0.33619189262390137, 
            0.5822931528091431, 
            0.7401654124259949
          ]
        ], 
        [
          [
            -0.37499988079071045, 
            -0.649519145488739, 
            3.0616171314629196e-17
          ], 
          [
            0.4999847412109375, 
            0.8660237193107605, 
            0.0
          ]
        ], 
        [
          [
            -0.41161152720451355, 
            -0.7129323482513428, 
            -0.1767766922712326
          ], 
          [
            0.33619189262390137, 
            0.5822931528091431, 
            -0.7401654124259949
          ]
        ], 
        [
          [
            -0.49999985098838806, 
            -0.8660255074501038, 
            -0.25
          ], 
          [
            -0.0317697674036026, 
            -0.055024873465299606, 
            -0.9979552626609802
          ]
        ], 
        [
          [
            -0.5883881449699402, 
            -1.0191185474395752, 
            -0.1767766922712326
          ], 
          [
            -0.36808374524116516, 
            -0.6375316381454468, 
            -0.6767784357070923
          ]
        ], 
        [
          [
            -0.6249998211860657, 
            -1.0825319290161133, 
            0.0
          ], 
          [
            -0.4999847412109375, 
            -0.8660237193107605, 
            0.0
          ]
        ], 
        [
          [
            8.884416757837243e-08, 
            -1.176776647567749, 
            0.1767766922712326
          ], 
          [
            0.0, 
            -0.7361674904823303, 
            0.6767784357070923
          ]
        ], 
        [
          [
            7.549790126404332e-08, 
            -1.0, 
            0.25
          ], 
          [
            0.0, 
            -0.0635395348072052, 
            0.9979552626609802
          ]
        ], 
        [
          [
            6.215162784428685e-08, 
            -0.8232232928276062, 
            0.1767766922712326
          ], 
          [
            0.0, 
            0.6723837852478027, 
            0.7401654124259949
          ]
        ], 
        [
          [
            5.662342772438933e-08, 
            -0.75, 
            3.0616171314629196e-17
          ], 
          [
            0.0, 
            0.999969482421875, 
            0.0
          ]
        ], 
        [
          [
            6.215162784428685e-08, 
            -0.8232232928276062, 
            -0.1767766922712326
          ], 
          [
            0.0, 
            0.6723837852478027, 
            -0.7401654124259949
          ]
        ], 
        [
          [
            7.549790126404332e-08, 
            -1.0, 
            -0.25
          ], 
          [
            0.0, 
            -0.0635395348072052, 
            -0.9979552626609802
          ]
        ], 
        [
          [
            8.884416757837243e-08, 
            -1.176776647567749, 
            -0.1767766922712326
          ], 
          [
            0.0, 
            -0.7361674904823303, 
            -0.6767784357070923
          ]
        ], 
        [
          [
            9.437237480369731e-08, 
            -1.25, 
            0.0
          ], 
          [
            0.0, 
            -1.0, 
            0.0
          ]
        ], 
        [
          [
            0.5883882641792297, 
            -1.0191185474395752, 
            0.1767766922712326
          ], 
          [
            0.36808374524116516, 
            -0.6375316381454468, 
            0.6767784357070923
          ]
        ], 
        [
          [
            0.4999999701976776, 
            -0.866025447845459, 
            0.25
          ], 
          [
            0.0317697674036026, 
            -0.055024873465299606, 
            0.9979552626609802
          ]
        ], 
        [
          [
            0.4116116166114807, 
            -0.7129323482513428, 
            0.1767766922712326
          ], 
          [
            -0.33619189262390137, 
            0.5822931528091431, 
            0.7401654124259949
          ]
        ], 
        [
          [
            0.3749999701976776, 
            -0.6495190858840942, 
            3.0616171314629196e-17
          ], 
          [
            -0.4999847412109375, 
            0.8660237193107605, 
            0.0
          ]
        ], 
        [
          [
            0.4116116166114807, 
            -0.7129323482513428, 
            -0.1767766922712326
          ], 
          [
            -0.33619189262390137, 
            0.5822931528091431, 
            -0.7401654124259949
          ]
        ], 
        [
          [
            0.4999999701976776, 
            -0.866025447845459, 
            -0.25
          ], 
          [
            0.0317697674036026, 
            -0.055024873465299606, 
            -0.9979552626609802
          ]
        ], 
        [
          [
            0.5883882641792297, 
            -1.0191185474395752, 
            -0.1767766922712326
          ], 
          [
            0.36808374524116516, 
            -0.6375316381454468, 
            -0.6767784357070923
          ]
        ], 
        [
          [
            0.6249999403953552, 
            -1.0825318098068237, 
            0.0
          ], 
          [
            0.4999847412109375, 
            -0.8660237193107605, 
            0.0
          ]
        ], 
        [
          [
            1.0191184282302856, 
            -0.5883884429931641, 
            0.1767766922712326
          ], 
          [
            0.6375316381454468, 
            -0.36808374524116516, 
            0.6767784357070923
          ]
        ], 
        [
          [
            0.8660253286361694, 
            -0.5000001192092896, 
            0.25
          ], 
          [
            0.055024873465299606, 
            -0.0317697674036026, 
            0.9979552626609802
          ]
        ], 
        [
          [
            0.7129322290420532, 
            -0.41161173582077026, 
            0.1767766922712326
          ], 
          [
            -0.5822931528091431, 
            0.33619189262390137, 
            0.7401654124259949
          ]
        ], 
        [
          [
            0.6495189666748047, 
            -0.37500008940696716, 
            3.0616171314629196e-17
          ], 
          [
            -0.8660237193107605, 
            0.4999847412109375, 
            0.0
          ]
        ], 
        [
          [
            0.7129322290420532, 
            -0.41161173582077026, 
            -0.1767766922712326
          ], 
          [
            -0.5822931528091431, 
            0.33619189262390137, 
            -0.7401654124259949
          ]
        ], 
        [
          [
            0.8660253286361694, 
            -0.5000001192092896, 
            -0.25
          ], 
          [
            0.055024873465299606, 
            -0.0317697674036026, 
            -0.9979552626609802
          ]
        ], 
        [
          [
            1.0191184282302856, 
            -0.5883884429931641, 
            -0.1767766922712326
          ], 
          [
            0.6375316381454468, 
            -0.36808374524116516, 
            -0.6767784357070923
          ]
        ], 
        [
          [
            1.0825316905975342, 
            -0.6250001192092896, 
            0.0
          ], 
          [
            0.8660237193107605, 
            -0.4999847412109375, 
            0.0
          ]
        ]
      ]
    }, 
    {
      "__pg_asset_type": "pg_gpu_buffer", 
      "__pg_asset_name": "SampleTorus_indices", 
      "layout": {
        "attribute_packing": "packed", 
        "element_alignment": 1, 
        "attributes": [
          {
            "name": "index", 
            "type": "uint"
          }
        ]
      }, 
      "type": "index_buffer", 
      "capacity": 576, 
      "data": [
        0, 
        1, 
        2, 
        2, 
        3, 
        4, 
        4, 
        5, 
        6, 
        6, 
        7, 
        8, 
        8, 
        9, 
        10, 
        10, 
        11, 
        12, 
        12, 
        13, 
        14, 
        14, 
        15, 
        0, 
        15, 
        16, 
        1, 
        1, 
        17, 
        3, 
        3, 
        18, 
        5, 
        5, 
        19, 
        7, 
        7, 
        20, 
        9, 
        9, 
        21, 
        11, 
        11, 
        22, 
        13, 
        13, 
        23, 
        15, 
        23, 
        24, 
        16, 
        16, 
        25, 
        17, 
        17, 
        26, 
        18, 
        18, 
        27, 
        19, 
        19, 
        28, 
        20, 
        20, 
        29, 
        21, 
        21, 
        30, 
        22, 
        22, 
        31, 
        23, 
        31, 
        32, 
        24, 
        24, 
        33, 
        25, 
        25, 
        34, 
        26, 
        26, 
        35, 
        27, 
        27, 
        36, 
        28, 
        28, 
        37, 
        29, 
        29, 
        38, 
        30, 
        30, 
        39, 
        31, 
        39, 
        40, 
        32, 
        32, 
        41, 
        33, 
        33, 
        42, 
        34, 
        34, 
        43, 
        35, 
        35, 
        44, 
        36, 
        36, 
        45, 
        37, 
        37, 
        46, 
        38, 
        38, 
        47, 
        39, 
        47, 
        48, 
        40, 
        40, 
        49, 
        41, 
        41, 
        50, 
        42, 
        42, 
        51, 
        43, 
        43, 
        52, 
        44, 
        44, 
        53, 
        45, 
        45, 
        54, 
        46, 
        46, 
        55, 
        47, 
        55, 
        56, 
        48, 
        48, 
        57, 
        49, 
        49, 
        58, 
        50, 
        50, 
        59, 
        51, 
        51, 
        60, 
        52, 
        52, 
        61, 
        53, 
        53, 
        62, 
        54, 
        54, 
        63, 
        55, 
        63, 
        64, 
        56, 
        56, 
        65, 
        57, 
        57, 
        66, 
        58, 
        58, 
        67, 
        59, 
        59, 
        68, 
        60, 
        60, 
        69, 
        61, 
        61, 
        70, 
        62, 
        62, 
        71, 
        63, 
        71, 
        72, 
        64, 
        64, 
        73, 
        65, 
        65, 
        74, 
        66, 
        66, 
        75, 
        67, 
        67, 
        76, 
        68, 
        68, 
        77, 
        69, 
        69, 
        78, 
        70, 
        70, 
        79, 
        71, 
        79, 
        80, 
        72, 
        72, 
        81, 
        73, 
        73, 
        82, 
        74, 
        74, 
        83, 
        75, 
        75, 
        84, 
        76, 
        76, 
        85, 
        77, 
        77, 
        86, 
        78, 
        78, 
        87, 
        79, 
        87, 
        88, 
        80, 
        80, 
        89, 
        81, 
        81, 
        90, 
        82, 
        82, 
        91, 
        83, 
        83, 
        92, 
        84, 
        84, 
        93, 
        85, 
        85, 
        94, 
        86, 
        86, 
        95, 
        87, 
        95, 
        2, 
        88, 
        88, 
        4, 
        89, 
        89, 
        6, 
        90, 
        90, 
        8, 
        91, 
        91, 
        10, 
        92, 
        92, 
        12, 
        93, 
        93, 
        14, 
        94, 
        94, 
        0, 
        95, 
        0, 
        15, 
        1, 
        2, 
        1, 
        3, 
        4, 
        3, 
        5, 
        6, 
        5, 
        7, 
        8, 
        7, 
        9, 
        10, 
        9, 
        11, 
        12, 
        11, 
        13, 
        14, 
        13, 
        15, 
        15, 
        23, 
        16, 
        1, 
        16, 
        17, 
        3, 
        17, 
        18, 
        5, 
        18, 
        19, 
        7, 
        19, 
        20, 
        9, 
        20, 
        21, 
        11, 
        21, 
        22, 
        13, 
        22, 
        23, 
        23, 
        31, 
        24, 
        16, 
        24, 
        25, 
        17, 
        25, 
        26, 
        18, 
        26, 
        27, 
        19, 
        27, 
        28, 
        20, 
        28, 
        29, 
        21, 
        29, 
        30, 
        22, 
        30, 
        31, 
        31, 
        39, 
        32, 
        24, 
        32, 
        33, 
        25, 
        33, 
        34, 
        26, 
        34, 
        35, 
        27, 
        35, 
        36, 
        28, 
        36, 
        37, 
        29, 
        37, 
        38, 
        30, 
        38, 
        39, 
        39, 
        47, 
        40, 
        32, 
        40, 
        41, 
        33, 
        41, 
        42, 
        34, 
        42, 
        43, 
        35, 
        43, 
        44, 
        36, 
        44, 
        45, 
        37, 
        45, 
        46, 
        38, 
        46, 
        47, 
        47, 
        55, 
        48, 
        40, 
        48, 
        49, 
        41, 
        49, 
        50, 
        42, 
        50, 
        51, 
        43, 
        51, 
        52, 
        44, 
        52, 
        53, 
        45, 
        53, 
        54, 
        46, 
        54, 
        55, 
        55, 
        63, 
        56, 
        48, 
        56, 
        57, 
        49, 
        57, 
        58, 
        50, 
        58, 
        59, 
        51, 
        59, 
        60, 
        52, 
        60, 
        61, 
        53, 
        61, 
        62, 
        54, 
        62, 
        63, 
        63, 
        71, 
        64, 
        56, 
        64, 
        65, 
        57, 
        65, 
        66, 
        58, 
        66, 
        67, 
        59, 
        67, 
        68, 
        60, 
        68, 
        69, 
        61, 
        69, 
        70, 
        62, 
        70, 
        71, 
        71, 
        79, 
        72, 
        64, 
        72, 
        73, 
        65, 
        73, 
        74, 
        66, 
        74, 
        75, 
        67, 
        75, 
        76, 
        68, 
        76, 
        77, 
        69, 
        77, 
        78, 
        70, 
        78, 
        79, 
        79, 
        87, 
        80, 
        72, 
        80, 
        81, 
        73, 
        81, 
        82, 
        74, 
        82, 
        83, 
        75, 
        83, 
        84, 
        76, 
        84, 
        85, 
        77, 
        85, 
        86, 
        78, 
        86, 
        87, 
        87, 
        95, 
        88, 
        80, 
        88, 
        89, 
        81, 
        89, 
        90, 
        82, 
        90, 
        91, 
        83, 
        91, 
        92, 
        84, 
        92, 
        93, 
        85, 
        93, 
        94, 
        86, 
        94, 
        95, 
        95, 
        0, 
        2, 
        88, 
        2, 
        4, 
        89, 
        4, 
        6, 
        90, 
        6, 
        8, 
        91, 
        8, 
        10, 
        92, 
        10, 
        12, 
        93, 
        12, 
        14, 
        94, 
        14, 
        0
      ]
    }
  ]
}